…
This code chunk finds the distinct A train stations and then out of
those which ones are ADA compliant.

``` r
nyc_transit_df |> 
  filter(route == "A") |> 
  select(station_name, line) |> 
  distinct()
```

    ## # A tibble: 60 × 2
    ##    station_name                  line           
    ##    <chr>                         <chr>          
    ##  1 Times Square                  42nd St Shuttle
    ##  2 125th St                      8 Avenue       
    ##  3 145th St                      8 Avenue       
    ##  4 14th St                       8 Avenue       
    ##  5 168th St - Washington Heights 8 Avenue       
    ##  6 175th St                      8 Avenue       
    ##  7 181st St                      8 Avenue       
    ##  8 190th St                      8 Avenue       
    ##  9 34th St                       8 Avenue       
    ## 10 42nd St                       8 Avenue       
    ## # ℹ 50 more rows
…
``` r
mr.trashwheel_df = 
  read_excel("data/202409 Trash Wheel Collection Data.xlsx", sheet = "Mr. Trash Wheel", range = "A2:N653", na = "") |>
  janitor::clean_names() |>
  mutate(sports_balls = round(sports_balls)) |>
  mutate(sports_balls = as.integer(sports_balls)) |>
  mutate(year = as.double(year)) |>
  mutate(trash_wheel = "mr")

mr.trashwheel_df
```

    ## # A tibble: 651 × 15
    ##    dumpster month  year date                weight_tons volume_cubic_yards
    ##       <dbl> <chr> <dbl> <dttm>                    <dbl>              <dbl>
    ##  1        1 May    2014 2014-05-16 00:00:00        4.31                 18
    ##  2        2 May    2014 2014-05-16 00:00:00        2.74                 13
    ##  3        3 May    2014 2014-05-16 00:00:00        3.45                 15
    ##  4        4 May    2014 2014-05-17 00:00:00        3.1                  15
    ##  5        5 May    2014 2014-05-17 00:00:00        4.06                 18
    ##  6        6 May    2014 2014-05-20 00:00:00        2.71                 13
    ##  7        7 May    2014 2014-05-21 00:00:00        1.91                  8
    ##  8        8 May    2014 2014-05-28 00:00:00        3.7                  16
    ##  9        9 June   2014 2014-06-05 00:00:00        2.52                 14
    ## 10       10 June   2014 2014-06-11 00:00:00        3.76                 18
    ## # ℹ 641 more rows
    ## # ℹ 9 more variables: plastic_bottles <dbl>, polystyrene <dbl>,
    ## #   cigarette_butts <dbl>, glass_bottles <dbl>, plastic_bags <dbl>,
    ## #   wrappers <dbl>, sports_balls <int>, homes_powered <dbl>, trash_wheel <chr>

``` r
prof.trashwheel_df =  
  read_excel("data/202409 Trash Wheel Collection Data.xlsx", sheet = "Professor Trash Wheel", range = "A2:M120", na = "") |>
  janitor::clean_names() |>
  mutate(trash_wheel = "prof") 

prof.trashwheel_df
```

    ## # A tibble: 118 × 14
    ##    dumpster month     year date                weight_tons volume_cubic_yards
    ##       <dbl> <chr>    <dbl> <dttm>                    <dbl>              <dbl>
    ##  1        1 January   2017 2017-01-02 00:00:00        1.79                 15
    ##  2        2 January   2017 2017-01-30 00:00:00        1.58                 15
    ##  3        3 February  2017 2017-02-26 00:00:00        2.32                 18
    ##  4        4 February  2017 2017-02-26 00:00:00        3.72                 15
    ##  5        5 February  2017 2017-02-28 00:00:00        1.45                 15
    ##  6        6 March     2017 2017-03-30 00:00:00        1.71                 15
    ##  7        7 April     2017 2017-04-01 00:00:00        1.82                 15
    ##  8        8 April     2017 2017-04-20 00:00:00        2.37                 15
    ##  9        9 May       2017 2017-05-10 00:00:00        2.64                 15
    ## 10       10 May       2017 2017-05-26 00:00:00        2.78                 15
    ## # ℹ 108 more rows
    ## # ℹ 8 more variables: plastic_bottles <dbl>, polystyrene <dbl>,
    ## #   cigarette_butts <dbl>, glass_bottles <dbl>, plastic_bags <dbl>,
    ## #   wrappers <dbl>, homes_powered <dbl>, trash_wheel <chr>

``` r
gwyn.trashwheel_df = 
  read_excel("data/202409 Trash Wheel Collection Data.xlsx", sheet = "Gwynnda Trash Wheel", range = "A2:L265", na = "") |>
  janitor::clean_names() |>
  mutate(trash_wheel = "gwyn") 

gwyn.trashwheel_df
```

    ## # A tibble: 263 × 13
    ##    dumpster month   year date                weight_tons volume_cubic_yards
    ##       <dbl> <chr>  <dbl> <dttm>                    <dbl>              <dbl>
    ##  1        1 July    2021 2021-07-03 00:00:00        0.93                 15
    ##  2        2 July    2021 2021-07-07 00:00:00        2.26                 15
    ##  3        3 July    2021 2021-07-07 00:00:00        1.62                 15
    ##  4        4 July    2021 2021-07-16 00:00:00        1.76                 15
    ##  5        5 July    2021 2021-07-30 00:00:00        1.53                 15
    ##  6        6 August  2021 2021-08-11 00:00:00        2.06                 15
    ##  7        7 August  2021 2021-08-14 00:00:00        1.9                  15
    ##  8        8 August  2021 2021-08-16 00:00:00        2.16                 15
    ##  9        9 August  2021 2021-08-16 00:00:00        2.6                  15
    ## 10       10 August  2021 2021-08-17 00:00:00        3.21                 15
    ## # ℹ 253 more rows
    ## # ℹ 7 more variables: plastic_bottles <dbl>, polystyrene <dbl>,
    ## #   cigarette_butts <dbl>, plastic_bags <dbl>, wrappers <dbl>,
    ## #   homes_powered <dbl>, trash_wheel <chr>

``` r
trashwheel_df = 
  bind_rows(mr.trashwheel_df,prof.trashwheel_df, gwyn.trashwheel_df)

trashwheel_df
```

    ## # A tibble: 1,032 × 15
    ##    dumpster month  year date                weight_tons volume_cubic_yards
    ##       <dbl> <chr> <dbl> <dttm>                    <dbl>              <dbl>
    ##  1        1 May    2014 2014-05-16 00:00:00        4.31                 18
    ##  2        2 May    2014 2014-05-16 00:00:00        2.74                 13
    ##  3        3 May    2014 2014-05-16 00:00:00        3.45                 15
    ##  4        4 May    2014 2014-05-17 00:00:00        3.1                  15
    ##  5        5 May    2014 2014-05-17 00:00:00        4.06                 18
    ##  6        6 May    2014 2014-05-20 00:00:00        2.71                 13
    ##  7        7 May    2014 2014-05-21 00:00:00        1.91                  8
    ##  8        8 May    2014 2014-05-28 00:00:00        3.7                  16
    ##  9        9 June   2014 2014-06-05 00:00:00        2.52                 14
    ## 10       10 June   2014 2014-06-11 00:00:00        3.76                 18
    ## # ℹ 1,022 more rows
    ## # ℹ 9 more variables: plastic_bottles <dbl>, polystyrene <dbl>,
    ## #   cigarette_butts <dbl>, glass_bottles <dbl>, plastic_bags <dbl>,
    ## #   wrappers <dbl>, sports_balls <int>, homes_powered <dbl>, trash_wheel <chr>
…
    ## Rows: 120 Columns: 5
    ## ── Column specification ────────────────────────────────────────────────────────
    ## Delimiter: ","
    ## chr (3): Baker Name, Baker Occupation, Hometown
    ## dbl (2): Series, Baker Age
    ## 
    ## ℹ Use `spec()` to retrieve the full column specification for this data.
    ## ℹ Specify the column types or set `show_col_types = FALSE` to quiet this message.

``` r
bakers_df
```

    ## # A tibble: 120 × 6
    ##    baker     last_name   series baker_age baker_occupation             hometown 
    ##    <chr>     <chr>        <dbl>     <dbl> <chr>                        <chr>    
    ##  1 Ali       Imdad            4        25 Charity worker               Saltley,…
    ##  2 Alice     Fevronia        10        28 Geography teacher            Essex    
    ##  3 Alvin     Magallanes       6        37 Nurse                        Bracknel…
    ##  4 Amelia    LeBruin         10        24 Fashion designer             Halifax  
    ##  5 Andrew    Smyth            7        25 Aerospace engineer           Derby / …
    ##  6 Annetha   Mills            1        30 Midwife                      Essex    
    ##  7 Antony    Amourdoux        9        30 Banker                       London   
    ##  8 Beca      Lyne-Pirkis      4        31 Military Wives' Choir Singer Aldersho…
    ##  9 Ben       Frazer           2        31 Graphic Designer             Northamp…
    ## 10 Benjamina Ebuehi           7        23 Teaching assistant           South Lo…
    ## # ℹ 110 more rows
…
    ## Rows: 548 Columns: 5
    ## ── Column specification ────────────────────────────────────────────────────────
    ## Delimiter: ","
    ## chr (3): Baker, Signature Bake, Show Stopper
    ## dbl (2): Series, Episode
    ## 
    ## ℹ Use `spec()` to retrieve the full column specification for this data.
    ## ℹ Specify the column types or set `show_col_types = FALSE` to quiet this message.

``` r
bakes_df
```

    ## # A tibble: 548 × 5
    ##    series episode baker     signature_bake                          show_stopper
    ##     <dbl>   <dbl> <chr>     <chr>                                   <chr>       
    ##  1      1       1 Annetha   "Light Jamaican Black Cakewith Strawbe… Red, White …
    ##  2      1       1 David     "Chocolate Orange Cake"                 Black Fores…
    ##  3      1       1 Edd       "Caramel Cinnamon and Banana Cake"      <NA>        
    ##  4      1       1 Jasminder "Fresh Mango and Passion Fruit Humming… <NA>        
    ##  5      1       1 Jonathan  "Carrot Cake with Lime and Cream Chees… Three Tiere…
    ##  6      1       1 Lea       "Cranberry and Pistachio Cakewith Oran… Raspberries…
    ##  7      1       1 Louise    "Carrot and Orange Cake"                Never Fail …
    ##  8      1       1 Mark      "Sticky Marmalade Tea Loaf"             Heart-shape…
    ##  9      1       1 Miranda   "Triple Layered Brownie Meringue Cake\… Three Tiere…
    ## 10      1       1 Ruth      "Three Tiered Lemon Drizzle Cakewith F… Classic Cho…
    ## # ℹ 538 more rows
…
    ## Rows: 1136 Columns: 5
    ## ── Column specification ────────────────────────────────────────────────────────
    ## Delimiter: ","
    ## chr (2): baker, result
    ## dbl (3): series, episode, technical
    ## 
    ## ℹ Use `spec()` to retrieve the full column specification for this data.
    ## ℹ Specify the column types or set `show_col_types = FALSE` to quiet this message.

``` r
results_df
```

    ## # A tibble: 1,136 × 5
    ##    series episode baker     technical result
    ##     <dbl>   <dbl> <chr>         <dbl> <chr> 
    ##  1      1       1 Annetha           2 IN    
    ##  2      1       1 David             3 IN    
    ##  3      1       1 Edd               1 IN    
    ##  4      1       1 Jasminder        NA IN    
    ##  5      1       1 Jonathan          9 IN    
    ##  6      1       1 Louise           NA IN    
    ##  7      1       1 Miranda           8 IN    
    ##  8      1       1 Ruth             NA IN    
    ##  9      1       1 Lea              10 OUT   
    ## 10      1       1 Mark             NA OUT   
    ## # ℹ 1,126 more rows

``` r
gbb_df = 
  results_df |>
  full_join(bakes_df, by = c("baker", "series","episode")) |>
  full_join(bakers_df, by = c("baker", "series")) 

gbb_df
```

    ## # A tibble: 1,145 × 11
    ##    series episode baker   technical result signature_bake show_stopper last_name
    ##     <dbl>   <dbl> <chr>       <dbl> <chr>  <chr>          <chr>        <chr>    
    ##  1      1       1 Annetha         2 IN     "Light Jamaic… Red, White … Mills    
    ##  2      1       1 David           3 IN     "Chocolate Or… Black Fores… Chambers 
    ##  3      1       1 Edd             1 IN     "Caramel Cinn… <NA>         Kimber   
    ##  4      1       1 Jasmin…        NA IN     "Fresh Mango … <NA>         Randhawa 
    ##  5      1       1 Jonath…         9 IN     "Carrot Cake … Three Tiere… Shepherd 
    ##  6      1       1 Louise         NA IN     "Carrot and O… Never Fail … Brimelow 
    ##  7      1       1 Miranda         8 IN     "Triple Layer… Three Tiere… Browne   
    ##  8      1       1 Ruth           NA IN     "Three Tiered… Classic Cho… Clemens  
    ##  9      1       1 Lea            10 OUT    "Cranberry an… Raspberries… Harris   
    ## 10      1       1 Mark           NA OUT    "Sticky Marma… Heart-shape… Whithers 
    ## # ℹ 1,135 more rows
    ## # ℹ 3 more variables: baker_age <dbl>, baker_occupation <chr>, hometown <chr>
…
